^C:\USERS\ADMINISTRATOR\新建文件夹\NEW\NEW\DEBUG\MAINDLG.SBR|C:\USERS\ADMINISTRATOR\新建文件夹\NEW\NEW\DEBUG\NEW.SBR|C:\USERS\ADMINISTRATOR\新建文件夹\NEW\NEW\DEBUG\STDAFX.SBR
C:\WINDOWS\GLOBALIZATION\SORTING\SORTDEFAULT.NLS
C:\WINDOWS\SYSTEM32\TZRES.DLL
C:\USERS\ADMINISTRATOR\新建文件夹\NEW\NEW\DEBUG\MAINDLG.SBR
