^C:\USERS\ADMINISTRATOR\DOCUMENTS\VISUAL STUDIO 2013\PROJECTS\NEW\NEW\STDAFX.CPP
C:\USERS\ADMINISTRATOR\DOCUMENTS\VISUAL STUDIO 2013\PROJECTS\NEW\NEW\DEBUG\NEW.PCH
C:\USERS\ADMINISTRATOR\DOCUMENTS\VISUAL STUDIO 2013\PROJECTS\NEW\NEW\DEBUG\VC120.PDB
C:\USERS\ADMINISTRATOR\DOCUMENTS\VISUAL STUDIO 2013\PROJECTS\NEW\NEW\DEBUG\VC120.IDB
C:\USERS\ADMINISTRATOR\DOCUMENTS\VISUAL STUDIO 2013\PROJECTS\NEW\NEW\DEBUG\STDAFX.SBR
C:\USERS\ADMINISTRATOR\DOCUMENTS\VISUAL STUDIO 2013\PROJECTS\NEW\NEW\DEBUG\STDAFX.OBJ
^C:\USERS\ADMINISTRATOR\DOCUMENTS\VISUAL STUDIO 2013\PROJECTS\NEW\NEW\MAINDLG.CPP|C:\USERS\ADMINISTRATOR\DOCUMENTS\VISUAL STUDIO 2013\PROJECTS\NEW\NEW\NEW.CPP
C:\USERS\ADMINISTRATOR\DOCUMENTS\VISUAL STUDIO 2013\PROJECTS\NEW\NEW\DEBUG\VC120.PDB
C:\USERS\ADMINISTRATOR\DOCUMENTS\VISUAL STUDIO 2013\PROJECTS\NEW\NEW\DEBUG\VC120.IDB
C:\USERS\ADMINISTRATOR\DOCUMENTS\VISUAL STUDIO 2013\PROJECTS\NEW\NEW\DEBUG\NEW.SBR
C:\USERS\ADMINISTRATOR\DOCUMENTS\VISUAL STUDIO 2013\PROJECTS\NEW\NEW\DEBUG\MAINDLG.SBR
C:\USERS\ADMINISTRATOR\DOCUMENTS\VISUAL STUDIO 2013\PROJECTS\NEW\NEW\DEBUG\MAINDLG.OBJ
C:\USERS\ADMINISTRATOR\DOCUMENTS\VISUAL STUDIO 2013\PROJECTS\NEW\NEW\DEBUG\NEW.OBJ
^C:\USERS\ADMINISTRATOR\DOCUMENTS\VISUAL STUDIO 2013\PROJECTS\NEW\NEW\MAINDLG.CPP
C:\USERS\ADMINISTRATOR\DOCUMENTS\VISUAL STUDIO 2013\PROJECTS\NEW\NEW\DEBUG\VC120.PDB
^C:\USERS\ADMINISTRATOR\DOCUMENTS\VISUAL STUDIO 2013\PROJECTS\NEW\NEW\NEW.CPP
C:\USERS\ADMINISTRATOR\DOCUMENTS\VISUAL STUDIO 2013\PROJECTS\NEW\NEW\DEBUG\VC120.PDB
