^C:\USERS\ADMINISTRATOR\DOCUMENTS\VISUAL STUDIO 2013\PROJECTS\NEW\NEW\NEW.RC
C:\USERS\ADMINISTRATOR\DOCUMENTS\VISUAL STUDIO 2013\PROJECTS\NEW\NEW\RESOURCE.H
C:\PROGRAM FILES (X86)\MICROSOFT SDKS\WINDOWS\V7.1A\INCLUDE\WINRES.H
C:\PROGRAM FILES (X86)\MICROSOFT SDKS\WINDOWS\V7.1A\INCLUDE\WINRESRC.H
C:\PROGRAM FILES (X86)\MICROSOFT SDKS\WINDOWS\V7.1A\INCLUDE\WINUSER.RH
C:\PROGRAM FILES (X86)\MICROSOFT SDKS\WINDOWS\V7.1A\INCLUDE\COMMCTRL.RH
C:\PROGRAM FILES (X86)\MICROSOFT SDKS\WINDOWS\V7.1A\INCLUDE\DDE.RH
C:\PROGRAM FILES (X86)\MICROSOFT SDKS\WINDOWS\V7.1A\INCLUDE\WINNT.RH
C:\PROGRAM FILES (X86)\MICROSOFT SDKS\WINDOWS\V7.1A\INCLUDE\DLGS.H
C:\PROGRAM FILES (X86)\MICROSOFT SDKS\WINDOWS\V7.1A\INCLUDE\WINVER.H
C:\PROGRAM FILES (X86)\MICROSOFT SDKS\WINDOWS\V7.1A\INCLUDE\SPECSTRINGS.H
C:\PROGRAM FILES (X86)\MICROSOFT SDKS\WINDOWS\V7.1A\INCLUDE\SAL_SUPP.H
C:\PROGRAM FILES (X86)\MICROSOFT SDKS\WINDOWS\V7.1A\INCLUDE\SPECSTRINGS_SUPP.H
D:\PROGRAM FILES (X86)\MICROSOFT VISUAL STUDIO 12.0\VC\INCLUDE\SAL.H
D:\PROGRAM FILES (X86)\MICROSOFT VISUAL STUDIO 12.0\VC\INCLUDE\CONCURRENCYSAL.H
C:\PROGRAM FILES (X86)\MICROSOFT SDKS\WINDOWS\V7.1A\INCLUDE\DRIVERSPECS.H
C:\PROGRAM FILES (X86)\MICROSOFT SDKS\WINDOWS\V7.1A\INCLUDE\SDV_DRIVERSPECS.H
C:\PROGRAM FILES (X86)\MICROSOFT SDKS\WINDOWS\V7.1A\INCLUDE\VERRSRC.H
