^C:\Users\Administrator\新建文件夹\ump_dll\ump_dll\ump_dll.vcxproj
C:\Users\Administrator\新建文件夹\new\Debug\ump_dll.lib
C:\Users\Administrator\新建文件夹\new\Debug\ump_dll.exp
^C:\Users\Administrator\新建文件夹\ump_dll\ump_dll\ump_dll.vcxproj
C:\Users\Administrator\新建文件夹\new\Debug\ump_dll.lib
C:\Users\Administrator\新建文件夹\new\Debug\ump_dll.exp
^C:\Users\Administrator\新建文件夹\ump_dll\ump_dll\ump_dll.vcxproj
C:\Users\Administrator\新建文件夹\new\Debug\ump_dll.lib
C:\Users\Administrator\新建文件夹\new\Debug\ump_dll.exp
^C:\Users\Administrator\新建文件夹\ump_dll\ump_dll\ump_dll.vcxproj
C:\Users\Administrator\新建文件夹\new\Debug\ump_dll.lib
C:\Users\Administrator\新建文件夹\new\Debug\ump_dll.exp
^C:\Users\Administrator\新建文件夹\ump_dll\ump_dll\ump_dll.vcxproj
C:\Users\Administrator\新建文件夹\new\Debug\ump_dll.lib
C:\Users\Administrator\新建文件夹\new\Debug\ump_dll.exp
^C:\Users\Administrator\新建文件夹\ump_dll\ump_dll\ump_dll.vcxproj
C:\Users\Administrator\新建文件夹\new\Debug\ump_dll.lib
C:\Users\Administrator\新建文件夹\new\Debug\ump_dll.exp
^C:\Users\Administrator\新建文件夹\ump_dll\ump_dll\ump_dll.vcxproj
C:\Users\Administrator\新建文件夹\new\Debug\ump_dll.lib
C:\Users\Administrator\新建文件夹\new\Debug\ump_dll.exp
^C:\Users\Administrator\新建文件夹\ump_dll\ump_dll\ump_dll.vcxproj
C:\Users\Administrator\新建文件夹\new\Debug\ump_dll.lib
C:\Users\Administrator\新建文件夹\new\Debug\ump_dll.exp
^C:\Users\Administrator\新建文件夹\ump_dll\ump_dll\ump_dll.vcxproj
C:\Users\Administrator\新建文件夹\new\Debug\ump_dll.lib
C:\Users\Administrator\新建文件夹\new\Debug\ump_dll.exp
^C:\Users\Administrator\新建文件夹\ump_dll\ump_dll\ump_dll.vcxproj
C:\Users\Administrator\新建文件夹\new\Debug\ump_dll.lib
C:\Users\Administrator\新建文件夹\new\Debug\ump_dll.exp
